E:\Infinity\network\Common\src\main\java\me\adamtanana\core\database\DatabaseEngine.java
E:\Infinity\network\Common\src\main\java\me\adamtanana\core\redis\message\PlayerOnlineMessage.java
E:\Infinity\network\Common\src\main\java\me\adamtanana\core\database\codecs\MapCodec.java
E:\Infinity\network\Common\src\main\java\me\adamtanana\core\reflection\SafeField.java
E:\Infinity\network\Common\src\main\java\me\adamtanana\core\database\codecs\DBCodec.java
E:\Infinity\network\Common\src\main\java\me\adamtanana\core\player\BanEntry.java
E:\Infinity\network\Common\src\main\java\me\adamtanana\core\util\CommonUtil.java
E:\Infinity\network\Common\src\main\java\me\adamtanana\core\database\codecs\UUIDCodec.java
E:\Infinity\network\Common\src\main\java\me\adamtanana\core\util\CaseInsensitiveMap.java
E:\Infinity\network\Common\src\main\java\me\adamtanana\core\util\Callback.java
E:\Infinity\network\Common\src\main\java\me\adamtanana\core\player\StatEntry.java
E:\Infinity\network\Common\src\main\java\me\adamtanana\core\database\Storable.java
E:\Infinity\network\Common\src\main\java\me\adamtanana\core\i18n\Translator.java
E:\Infinity\network\Common\src\main\java\me\adamtanana\core\player\GadgetEntry.java
E:\Infinity\network\Common\src\main\java\me\adamtanana\core\i18n\Msg.java
E:\Infinity\network\Common\src\main\java\me\adamtanana\core\database\Database.java
E:\Infinity\network\Common\src\main\java\me\adamtanana\core\util\C.java
E:\Infinity\network\Common\src\main\java\me\adamtanana\core\player\MuteEntry.java
E:\Infinity\network\Common\src\main\java\me\adamtanana\core\reflection\SafeMethod.java
E:\Infinity\network\Common\src\main\java\me\adamtanana\core\player\Rank.java
E:\Infinity\network\Common\src\main\java\me\adamtanana\core\database\codecs\EnumCodec.java
E:\Infinity\network\Common\src\main\java\me\adamtanana\core\database\codecs\ListCodec.java
E:\Infinity\network\Common\src\main\java\me\adamtanana\core\database\Model.java
E:\Infinity\network\Common\src\main\java\me\adamtanana\core\redis\MessageListener.java
E:\Infinity\network\Common\src\main\java\me\adamtanana\core\redis\JedisServer.java
E:\Infinity\network\Common\src\main\java\me\adamtanana\core\redis\message\PlayerMessage.java
E:\Infinity\network\Common\src\main\java\me\adamtanana\core\redis\Message.java
E:\Infinity\network\Common\src\main\java\me\adamtanana\core\redis\MessageReader.java
E:\Infinity\network\Common\src\main\java\me\adamtanana\core\database\Null.java
E:\Infinity\network\Common\src\main\java\me\adamtanana\core\reflection\SafeClass.java
E:\Infinity\network\Common\src\main\java\me\adamtanana\core\player\OldViolations.java
E:\Infinity\network\Common\src\main\java\me\adamtanana\core\database\codecs\ModelCodec.java
E:\Infinity\network\Common\src\main\java\me\adamtanana\core\redis\message\CommandMessage.java
E:\Infinity\network\Common\src\main\java\me\adamtanana\core\redis\MessageWriter.java
E:\Infinity\network\Common\src\main\java\me\adamtanana\core\player\GlobalPlayer.java
